SlNo,TRANSACTION_ID,PNR_NO,OPERATOR_ID,PG NAME,CLASS,REFUND_AMOUNT,WAITING_AUTO_CANCELLED,TRANSACTION_DATE,ACTUAL_REFUND_DATE,TDR_CAN,USER_ID,PRINCIPAL_USER_ID,CANCELLATION_ID
1,100002301245235,6440697596,,TRIPSKING,SL,3310.00,No,18-MAY-2020 02:01:16,19-MAY-2020,CAN,itripkg00080,itripkg00000,100000433192266
2,100002291178890,2636903837,,TRIPSKING,3A,3945.00,No,18-MAY-2020 01:13:55,19-MAY-2020,CAN,itripkg00052,itripkg00000,100000432906648
3,100002292721410,4103986200,,TRIPSKING,SL,3220.00,No,18-MAY-2020 02:03:04,19-MAY-2020,CAN,itripkg00065,itripkg00000,100000433202764
4,100002299328929,6803011096,,TRIPSKING,SL,1280.00,No,18-MAY-2020 01:57:58,19-MAY-2020,CAN,itripkg00080,itripkg00000,100000433172728
5,100002312411276,2637526587,,TRIPSKING,3A,6780.00,No,18-MAY-2020 01:59:45,19-MAY-2020,CAN,itripkg00092,itripkg00000,100000433183397
6,100002280550864,2407922982,,TRIPSKING,3A,3495.00,No,18-MAY-2020 01:42:18,19-MAY-2020,CAN,itripkg00080,itripkg00000,100000433078757
7,100002329945116,2756690211,,TRIPSKING,SL,5520.00,No,18-MAY-2020 02:38:05,19-MAY-2020,CAN,itripkg00023,itripkg00000,100000433414245
8,100002300400062,6140669343,,TRIPSKING,2A,1695.00,No,18-MAY-2020 01:11:09,19-MAY-2020,CAN,itripkg00085,itripkg00000,100000432888993
9,100002333369518,2856810289,,TRIPSKING,3A,2035.00,No,18-MAY-2020 02:43:03,19-MAY-2020,CAN,itripkg00071,itripkg00000,100000433443345
10,100002308093972,8804074821,,TRIPSKING,3A,6950.00,No,18-MAY-2020 01:36:02,19-MAY-2020,CAN,itripkg00036,itripkg00000,100000433040215
11,100002327151233,6541298707,,TRIPSKING,SL,990.00,No,18-MAY-2020 02:34:18,19-MAY-2020,CAN,itripkg00052,itripkg00000,100000433391826
12,100002316361048,6741059031,,TRIPSKING,SL,1965.00,No,18-MAY-2020 02:10:36,19-MAY-2020,CAN,itripkg00030,itripkg00000,100000433249621
13,100002319049068,6241091808,,TRIPSKING,SL,2370.00,No,18-MAY-2020 02:13:02,19-MAY-2020,CAN,itripkg00022,itripkg00000,100000433264134
14,100002307287904,2637367036,,TRIPSKING,SL,1680.00,No,18-MAY-2020 01:32:27,19-MAY-2020,CAN,itripkg00028,itripkg00000,100000433017672
15,100002294872804,6440548334,,TRIPSKING,SL,1605.00,No,18-MAY-2020 01:52:54,19-MAY-2020,CAN,itripkg00080,itripkg00000,100000433142273
16,100002307620979,2537381939,,TRIPSKING,SL,580.00,No,18-MAY-2020 01:57:55,19-MAY-2020,CAN,itripkg00028,itripkg00000,100000433172193
17,100002308706829,8730801497,,TRIPSKING,SL,2190.00,No,18-MAY-2020 01:40:26,19-MAY-2020,CAN,itripkg00036,itripkg00000,100000433067658
18,100002300805727,2408531672,,TRIPSKING,SL,2820.00,No,18-MAY-2020 01:11:44,19-MAY-2020,CAN,itripkg00036,itripkg00000,100000432893223
19,100002318847163,6141087307,,TRIPSKING,SL,630.00,No,18-MAY-2020 02:12:34,19-MAY-2020,CAN,itripkg00084,itripkg00000,100000433261659
20,100002304570482,2755929409,,TRIPSKING,SL,1650.00,No,18-MAY-2020 02:04:43,19-MAY-2020,CAN,itripkg00052,itripkg00000,100000433213253
21,100002300805331,2108528560,,TRIPSKING,SL,2820.00,No,18-MAY-2020 01:11:43,19-MAY-2020,CAN,itripkg00036,itripkg00000,100000432893209
22,100002322943662,6803551165,,TRIPSKING,3A,505.00,No,18-MAY-2020 02:26:52,19-MAY-2020,CAN,itripkg00085,itripkg00000,100000433347657
23,100002308889605,8804095592,,TRIPSKING,SL,2235.00,No,18-MAY-2020 01:41:24,19-MAY-2020,CAN,itripkg00036,itripkg00000,100000433072958
24,100002305372459,2208655015,,TRIPSKING,SL,715.00,No,18-MAY-2020 01:24:40,19-MAY-2020,CAN,itripkg00052,itripkg00000,100000432971447
25,100002331018222,6241405003,,TRIPSKING,3A,3900.00,No,18-MAY-2020 02:52:06,19-MAY-2020,CAN,itripkg00065,itripkg00000,100000433483724
26,100002300805412,2755827929,,TRIPSKING,SL,2400.00,No,18-MAY-2020 01:11:44,19-MAY-2020,CAN,itripkg00036,itripkg00000,100000432893228
27,100002300805779,2855830945,,TRIPSKING,SL,2070.00,No,18-MAY-2020 01:11:44,19-MAY-2020,CAN,itripkg00036,itripkg00000,100000432893233
28,100002300365312,2108512125,,TRIPSKING,3A,7410.00,No,18-MAY-2020 01:10:59,19-MAY-2020,CAN,itripkg00036,itripkg00000,100000432888160
29,100002296527890,2208395323,,TRIPSKING,3A,5405.00,No,18-MAY-2020 01:29:36,19-MAY-2020,CAN,itripkg00007,itripkg00000,100000433001235
30,100002308889588,8630805836,,TRIPSKING,SL,2610.00,No,18-MAY-2020 01:41:23,19-MAY-2020,CAN,itripkg00036,itripkg00000,100000433072941
31,100002285107643,6802671955,,TRIPSKING,3A,7140.00,No,18-MAY-2020 01:22:30,19-MAY-2020,CAN,itripkg00085,itripkg00000,100000432958987
32,100002322943581,2409164924,,TRIPSKING,3A,1225.00,No,18-MAY-2020 02:19:00,19-MAY-2020,CAN,itripkg00085,itripkg00000,100000433300919
33,100002321901964,8331075589,,TRIPSKING,SL,540.00,No,18-MAY-2020 02:18:43,19-MAY-2020,CAN,itripkg00085,itripkg00000,100000433299419
34,100002308889693,8330806274,,TRIPSKING,SL,2235.00,No,18-MAY-2020 01:41:22,19-MAY-2020,CAN,itripkg00036,itripkg00000,100000433072929
35,100002310680414,2208819240,,TRIPSKING,3A,505.00,No,18-MAY-2020 02:03:01,19-MAY-2020,CAN,itripkg00065,itripkg00000,100000433202534
36,100002332291349,2309474339,,TRIPSKING,SL,2250.00,No,18-MAY-2020 02:38:19,19-MAY-2020,CAN,itripkg00035,itripkg00000,100000433415386
37,100002308889957,8730807949,,TRIPSKING,SL,2215.00,No,18-MAY-2020 01:41:24,19-MAY-2020,CAN,itripkg00036,itripkg00000,100000433072970
38,100002300365434,2308513474,,TRIPSKING,3A,7410.00,No,18-MAY-2020 01:11:00,19-MAY-2020,CAN,itripkg00036,itripkg00000,100000432888198
39,100002310315426,8730839452,,TRIPSKING,SL,1375.00,No,18-MAY-2020 01:49:38,19-MAY-2020,CAN,itripkg00085,itripkg00000,100000433122285
40,100002273796752,2755005858,,TRIPSKING,SL,1960.00,No,18-MAY-2020 01:05:59,19-MAY-2020,CAN,itripkg00022,itripkg00000,100000432863322
41,100002299536875,2755789867,,TRIPSKING,SL,860.00,No,18-MAY-2020 01:58:18,19-MAY-2020,CAN,itripkg00092,itripkg00000,100000433174819
42,100002300365063,2408510311,,TRIPSKING,3A,6950.00,No,18-MAY-2020 01:10:57,19-MAY-2020,CAN,itripkg00036,itripkg00000,100000432888123
43,100002300973019,2408533457,,TRIPSKING,SL,520.00,No,18-MAY-2020 01:12:00,19-MAY-2020,CAN,itripkg00036,itripkg00000,100000432894194
44,100002287304566,2408125468,,TRIPSKING,3A,505.00,No,18-MAY-2020 01:54:56,19-MAY-2020,CAN,itripkg00065,itripkg00000,100000433154340
45,100002300213956,6640668540,,TRIPSKING,2A,5530.00,No,18-MAY-2020 01:09:32,19-MAY-2020,CAN,itripkg00085,itripkg00000,100000432878985
46,100002308328011,8330789777,,TRIPSKING,3A,6840.00,No,18-MAY-2020 01:39:11,19-MAY-2020,CAN,itripkg00036,itripkg00000,100000433059366
47,100002289433396,2408183756,,TRIPSKING,SL,3025.00,No,18-MAY-2020 01:09:51,19-MAY-2020,CAN,itripkg00007,itripkg00000,100000432881430
48,100002308328139,8804076102,,TRIPSKING,3A,6840.00,No,18-MAY-2020 01:39:12,19-MAY-2020,CAN,itripkg00036,itripkg00000,100000433059376
49,100002285107706,6140307990,,TRIPSKING,3A,5950.00,No,18-MAY-2020 01:22:31,19-MAY-2020,CAN,itripkg00085,itripkg00000,100000432959606
50,100002287980365,6440378719,,TRIPSKING,3A,5405.00,No,18-MAY-2020 01:37:09,19-MAY-2020,CAN,itripkg00007,itripkg00000,100000433047407
51,100002333010673,6541464697,,TRIPSKING,SL,820.00,No,18-MAY-2020 02:54:46,19-MAY-2020,CAN,itripkg00071,itripkg00000,100000433490217
52,100002312411514,2108870047,,TRIPSKING,3A,770.00,No,18-MAY-2020 01:59:45,19-MAY-2020,CAN,itripkg00092,itripkg00000,100000433183387
53,100002308889152,8804092672,,TRIPSKING,SL,2025.00,No,18-MAY-2020 01:41:24,19-MAY-2020,CAN,itripkg00036,itripkg00000,100000433072961
54,100002332291294,2538132066,,TRIPSKING,SL,1875.00,No,18-MAY-2020 02:38:20,19-MAY-2020,CAN,itripkg00035,itripkg00000,100000433416017
55,100002303922867,2108608427,,TRIPSKING,2A,7300.00,No,18-MAY-2020 01:18:09,19-MAY-2020,CAN,itripkg00085,itripkg00000,100000432932806
56,100002304181188,2637268858,,TRIPSKING,2A,1830.00,No,18-MAY-2020 01:18:57,19-MAY-2020,CAN,itripkg00085,itripkg00000,100000432937658
57,100002318881920,6641090937,,TRIPSKING,SL,640.00,No,18-MAY-2020 02:12:38,19-MAY-2020,CAN,itripkg00022,itripkg00000,100000433261743
58,100002300683447,2408524419,,TRIPSKING,3A,1330.00,No,18-MAY-2020 01:11:31,19-MAY-2020,CAN,itripkg00036,itripkg00000,100000432891720
59,100002300365289,2855811202,,TRIPSKING,3A,7410.00,No,18-MAY-2020 01:10:58,19-MAY-2020,CAN,itripkg00036,itripkg00000,100000432888151
60,100002288398555,4203863968,,TRIPSKING,3A,3565.00,No,18-MAY-2020 01:38:51,19-MAY-2020,CAN,itripkg00004,itripkg00000,100000433057868
61,100002312232082,2756160349,,TRIPSKING,3A,4650.00,No,18-MAY-2020 02:14:18,19-MAY-2020,CAN,itripkg00072,itripkg00000,100000433271774
62,100002310680452,2856118287,,TRIPSKING,3A,505.00,No,18-MAY-2020 01:51:37,19-MAY-2020,CAN,itripkg00065,itripkg00000,100000433133931
63,100002300683375,2855822474,,TRIPSKING,3A,1555.00,No,18-MAY-2020 01:11:30,19-MAY-2020,CAN,itripkg00036,itripkg00000,100000432891713
64,100002311131341,2637484596,,TRIPSKING,3A,1175.00,No,18-MAY-2020 01:53:27,19-MAY-2020,CAN,itripkg00004,itripkg00000,100000433145361
65,100002308889429,8330804979,,TRIPSKING,SL,2820.00,No,18-MAY-2020 01:41:21,19-MAY-2020,CAN,itripkg00036,itripkg00000,100000433072904
66,100002310069411,8530832638,,TRIPSKING,SL,650.00,No,18-MAY-2020 01:48:12,19-MAY-2020,CAN,itripkg00025,itripkg00000,100000433113750
67,100002288225256,8230367306,,TRIPSKING,3A,4890.00,No,18-MAY-2020 01:38:05,19-MAY-2020,CAN,itripkg00011,itripkg00000,100000433052882
68,100002308889099,8630803267,,TRIPSKING,SL,2820.00,No,18-MAY-2020 01:41:22,19-MAY-2020,CAN,itripkg00036,itripkg00000,100000433072914
69,100002308889325,8730804227,,TRIPSKING,SL,2280.00,No,18-MAY-2020 01:41:24,19-MAY-2020,CAN,itripkg00036,itripkg00000,100000433072955
70,100002310305544,6740909296,,TRIPSKING,3A,2690.00,No,18-MAY-2020 02:11:43,19-MAY-2020,CAN,itripkg00012,itripkg00000,100000433256429
71,100002289978396,2408203200,,TRIPSKING,3A,1980.00,No,18-MAY-2020 01:58:51,19-MAY-2020,CAN,itripkg00034,itripkg00000,100000433178267
72,100002312292820,6240955824,,TRIPSKING,SL,1340.00,No,18-MAY-2020 01:59:16,19-MAY-2020,CAN,itripkg00052,itripkg00000,100000433180501
73,100002308889897,2856064496,,TRIPSKING,SL,2445.00,No,18-MAY-2020 01:41:23,19-MAY-2020,CAN,itripkg00036,itripkg00000,100000433072949
74,100002296768474,2308404347,,TRIPSKING,SL,415.00,No,18-MAY-2020 01:54:47,19-MAY-2020,CAN,itripkg00004,itripkg00000,100000433153838
75,100002313754280,6540992184,,TRIPSKING,3A,7580.00,No,18-MAY-2020 02:27:59,19-MAY-2020,CAN,itripkg00018,itripkg00000,100000433354517
76,100002287367806,2208127531,,TRIPSKING,SL,1280.00,No,18-MAY-2020 01:32:57,19-MAY-2020,CAN,itripkg00084,itripkg00000,100000433020726
77,100002308706575,8130800257,,TRIPSKING,SL,2655.00,No,18-MAY-2020 01:40:26,19-MAY-2020,CAN,itripkg00036,itripkg00000,100000433067651
78,100002318878685,4724624597,,TRIPSKING,2A,10710.00,No,18-MAY-2020 02:12:39,19-MAY-2020,CAN,itripkg00012,itripkg00000,100000433261760
79,100002333329729,6803839417,,TRIPSKING,3A,950.00,No,18-MAY-2020 02:55:11,19-MAY-2020,CAN,itripkg00092,itripkg00000,100000433490965
80,100002299079356,6440638467,,TRIPSKING,2A,3270.00,No,18-MAY-2020 01:40:31,19-MAY-2020,CAN,itripkg00082,itripkg00000,100000433068042
81,100002312411302,2537526731,,TRIPSKING,3A,1130.00,No,18-MAY-2020 01:59:45,19-MAY-2020,CAN,itripkg00092,itripkg00000,100000433184004
82,100002333369551,8231333013,,TRIPSKING,3A,945.00,No,18-MAY-2020 02:39:54,19-MAY-2020,CAN,itripkg00071,itripkg00000,100000433425474
83,100002310689850,4104455364,,TRIPSKING,SL,3500.00,No,18-MAY-2020 01:51:39,19-MAY-2020,CAN,itripkg00009,itripkg00000,100000433133965
84,100002308706938,8730801873,,TRIPSKING,SL,2820.00,No,18-MAY-2020 01:40:28,19-MAY-2020,CAN,itripkg00036,itripkg00000,100000433067685
85,100002298733315,6540629664,,TRIPSKING,SL,3840.00,No,18-MAY-2020 01:57:17,19-MAY-2020,CAN,itripkg00080,itripkg00000,100000433168641
86,100002322356025,6741168815,,TRIPSKING,3A,645.00,No,18-MAY-2020 02:38:22,19-MAY-2020,CAN,itripkg00092,itripkg00000,100000433416205
87,100002328418744,2409341906,,TRIPSKING,3A,2610.00,No,18-MAY-2020 02:27:49,19-MAY-2020,CAN,itripkg00038,itripkg00000,100000433353471
88,100002308876984,2108764892,,TRIPSKING,2A,1655.00,No,18-MAY-2020 01:41:18,19-MAY-2020,CAN,itripkg00008,itripkg00000,100000433072836
89,100002335451130,2309570792,,TRIPSKING,3A,1680.00,No,18-MAY-2020 02:37:30,19-MAY-2020,CAN,itripkg00008,itripkg00000,100000433410847
90,100002328418758,2109341961,,TRIPSKING,3A,2610.00,No,18-MAY-2020 02:27:49,19-MAY-2020,CAN,itripkg00038,itripkg00000,100000433353495
91,100002300973043,2408533763,,TRIPSKING,SL,565.00,No,18-MAY-2020 01:11:58,19-MAY-2020,CAN,itripkg00036,itripkg00000,100000432894149
92,100002308889511,8230805476,,TRIPSKING,SL,2655.00,No,18-MAY-2020 01:41:22,19-MAY-2020,CAN,itripkg00036,itripkg00000,100000433072912
93,100002283085186,6440264627,,TRIPSKING,3A,4780.00,No,18-MAY-2020 01:15:28,19-MAY-2020,CAN,itripkg00052,itripkg00000,100000432916205
94,100002308889402,8130804860,,TRIPSKING,SL,1860.00,No,18-MAY-2020 01:41:21,19-MAY-2020,CAN,itripkg00036,itripkg00000,100000433072890
95,100002296869050,2755702637,,TRIPSKING,3A,3830.00,No,18-MAY-2020 01:30:56,19-MAY-2020,CAN,itripkg00072,itripkg00000,100000433008866
96,100002312366056,8430880048,,TRIPSKING,SL,2145.00,No,18-MAY-2020 02:14:32,19-MAY-2020,CAN,itripkg00074,itripkg00000,100000433273320
97,100002301245475,6440699066,,TRIPSKING,3A,1635.00,No,18-MAY-2020 02:01:14,19-MAY-2020,CAN,itripkg00080,itripkg00000,100000433192224
98,100002322092265,6241163925,,TRIPSKING,SL,460.00,No,18-MAY-2020 02:19:09,19-MAY-2020,CAN,itripkg00080,itripkg00000,100000433301922
99,100002308706510,8430800033,,TRIPSKING,SL,2490.00,No,18-MAY-2020 01:40:27,19-MAY-2020,CAN,itripkg00036,itripkg00000,100000433067667
100,100002307405040,2537366908,,TRIPSKING,3A,1185.00,No,18-MAY-2020 01:32:58,19-MAY-2020,CAN,itripkg00085,itripkg00000,100000433020583
101,100002300365476,2637171171,,TRIPSKING,3A,5010.00,No,18-MAY-2020 01:10:59,19-MAY-2020,CAN,itripkg00036,itripkg00000,100000432888156
102,100002312232036,2537518601,,TRIPSKING,3A,4650.00,No,18-MAY-2020 02:14:17,19-MAY-2020,CAN,itripkg00072,itripkg00000,100000433271761
103,100002322356099,2109143922,,TRIPSKING,3A,600.00,No,18-MAY-2020 02:19:55,19-MAY-2020,CAN,itripkg00092,itripkg00000,100000433306878
104,100002308889914,8730807750,,TRIPSKING,SL,2445.00,No,18-MAY-2020 01:41:24,19-MAY-2020,CAN,itripkg00036,itripkg00000,100000433072956
105,100002308328030,8630789686,,TRIPSKING,3A,7410.00,No,18-MAY-2020 01:39:13,19-MAY-2020,CAN,itripkg00036,itripkg00000,100000433059399
106,100002308706628,8530800706,,TRIPSKING,SL,2590.00,No,18-MAY-2020 01:40:26,19-MAY-2020,CAN,itripkg00036,itripkg00000,100000433067663
107,100002304181127,2108610330,,TRIPSKING,2A,2240.00,No,18-MAY-2020 01:18:57,19-MAY-2020,CAN,itripkg00085,itripkg00000,100000432937645
108,100002336708616,2856897725,,TRIPSKING,3A,3180.00,No,18-MAY-2020 02:43:26,19-MAY-2020,CAN,itripkg00100,itripkg00000,100000433446231
109,100002322254068,2537799125,,TRIPSKING,SL,1210.00,No,18-MAY-2020 02:18:01,19-MAY-2020,CAN,itripkg00065,itripkg00000,100000433295026
110,100002310315574,8730839781,,TRIPSKING,SL,1080.00,No,18-MAY-2020 01:49:38,19-MAY-2020,CAN,itripkg00085,itripkg00000,100000433122289
111,100002321901946,6741162393,,TRIPSKING,SL,540.00,No,18-MAY-2020 02:18:46,19-MAY-2020,CAN,itripkg00085,itripkg00000,100000433299516
112,100002304181897,2108614382,,TRIPSKING,2A,1695.00,No,18-MAY-2020 01:18:56,19-MAY-2020,CAN,itripkg00085,itripkg00000,100000432937625
113,100002313754364,6240992461,,TRIPSKING,3A,7580.00,No,18-MAY-2020 02:27:59,19-MAY-2020,CAN,itripkg00018,itripkg00000,100000433354534
114,100002300365649,2637172003,,TRIPSKING,3A,1080.00,No,18-MAY-2020 01:10:59,19-MAY-2020,CAN,itripkg00036,itripkg00000,100000432888167
115,100002291349014,2536905199,,TRIPSKING,3A,4615.00,No,18-MAY-2020 01:14:16,19-MAY-2020,CAN,itripkg00052,itripkg00000,100000432908826
116,100002333010694,4305052639,,TRIPSKING,SL,820.00,No,18-MAY-2020 02:54:47,19-MAY-2020,CAN,itripkg00071,itripkg00000,100000433490236
117,100002310315540,6240909229,,TRIPSKING,SL,1080.00,No,18-MAY-2020 01:49:37,19-MAY-2020,CAN,itripkg00085,itripkg00000,100000433122274
118,100002318881878,2409041067,,TRIPSKING,SL,640.00,No,18-MAY-2020 02:12:51,19-MAY-2020,CAN,itripkg00022,itripkg00000,100000433262973
119,100002298315657,6140618846,,TRIPSKING,3A,8655.00,No,18-MAY-2020 01:36:35,19-MAY-2020,CAN,itripkg00080,itripkg00000,100000433043809
120,100002330089519,2109400741,,TRIPSKING,2A,8720.00,No,18-MAY-2020 02:34:29,19-MAY-2020,CAN,itripkg00092,itripkg00000,100000433392397
121,100002285057758,2855352746,,TRIPSKING,3A,4320.00,No,18-MAY-2020 01:22:18,19-MAY-2020,CAN,itripkg00092,itripkg00000,100000432958093
122,100002308328904,8530793942,,TRIPSKING,3A,7410.00,No,18-MAY-2020 01:39:12,19-MAY-2020,CAN,itripkg00036,itripkg00000,100000433059371
123,100002313754313,2756214213,,TRIPSKING,3A,5160.00,No,18-MAY-2020 02:16:28,19-MAY-2020,CAN,itripkg00018,itripkg00000,100000433285109
124,100002299132792,2208476195,,TRIPSKING,SL,2900.00,No,18-MAY-2020 01:41:00,19-MAY-2020,CAN,itripkg00022,itripkg00000,100000433071071
125,100002313754389,2308916166,,TRIPSKING,3A,5160.00,No,18-MAY-2020 02:16:28,19-MAY-2020,CAN,itripkg00018,itripkg00000,100000433285122
126,100002310680389,2756118248,,TRIPSKING,3A,555.00,No,18-MAY-2020 02:03:01,19-MAY-2020,CAN,itripkg00065,itripkg00000,100000433202525
127,100002304345215,2108616427,,TRIPSKING,2A,3670.00,No,18-MAY-2020 01:19:26,19-MAY-2020,CAN,itripkg00085,itripkg00000,100000432940111
128,100002308706795,8730801331,,TRIPSKING,SL,2590.00,No,18-MAY-2020 01:40:26,19-MAY-2020,CAN,itripkg00036,itripkg00000,100000433067647
129,100002300683626,2755824485,,TRIPSKING,3A,4685.00,No,18-MAY-2020 01:11:30,19-MAY-2020,CAN,itripkg00036,itripkg00000,100000432891705
130,100002289849607,2408199936,,TRIPSKING,2A,1645.00,No,18-MAY-2020 01:42:51,19-MAY-2020,CAN,itripkg00008,itripkg00000,100000433082419
131,100002301245312,2408547194,,TRIPSKING,SL,2825.00,No,18-MAY-2020 01:48:11,19-MAY-2020,CAN,itripkg00080,itripkg00000,100000433114005
132,100002298733293,6540629530,,TRIPSKING,SL,3840.00,No,18-MAY-2020 01:57:16,19-MAY-2020,CAN,itripkg00080,itripkg00000,100000433168621
133,100002310315190,6640908145,,TRIPSKING,SL,1915.00,No,18-MAY-2020 01:49:36,19-MAY-2020,CAN,itripkg00085,itripkg00000,100000433122252
134,100002300508019,2637174359,,TRIPSKING,3A,540.00,No,18-MAY-2020 01:11:16,19-MAY-2020,CAN,itripkg00036,itripkg00000,100000432889785
135,100002288632081,4723841747,,TRIPSKING,FC,2820.00,No,18-MAY-2020 01:57:09,19-MAY-2020,CAN,itripkg00092,itripkg00000,100000433167566
136,100002336708577,2409598565,,TRIPSKING,2A,4545.00,No,18-MAY-2020 02:46:23,19-MAY-2020,CAN,itripkg00100,itripkg00000,100000433460844
137,100002283860184,4516002569,,TRIPSKING,3A,9925.00,No,18-MAY-2020 01:50:07,19-MAY-2020,CAN,itripkg00018,itripkg00000,100000433125351
138,100002308889830,8430807026,,TRIPSKING,SL,2610.00,No,18-MAY-2020 01:41:24,19-MAY-2020,CAN,itripkg00036,itripkg00000,100000433072976
139,100002335451207,8531373431,,TRIPSKING,3A,945.00,No,18-MAY-2020 02:42:41,19-MAY-2020,CAN,itripkg00008,itripkg00000,100000433441437
140,100002313754419,6640992762,,TRIPSKING,3A,6820.00,No,18-MAY-2020 02:28:00,19-MAY-2020,CAN,itripkg00018,itripkg00000,100000433354554
141,100002322092279,8531076960,,TRIPSKING,SL,460.00,No,18-MAY-2020 02:19:10,19-MAY-2020,CAN,itripkg00080,itripkg00000,100000433301941
142,100002308889037,8330802572,,TRIPSKING,SL,2070.00,No,18-MAY-2020 01:41:23,19-MAY-2020,CAN,itripkg00036,itripkg00000,100000433072943
143,100002303933635,2408605630,,TRIPSKING,3A,5520.00,No,18-MAY-2020 01:18:11,19-MAY-2020,CAN,itripkg00022,itripkg00000,100000432932844
144,100002307405004,2537366872,,TRIPSKING,3A,1185.00,No,18-MAY-2020 01:32:58,19-MAY-2020,CAN,itripkg00085,itripkg00000,100000433020573
145,100002310315252,8330838757,,TRIPSKING,SL,1915.00,No,18-MAY-2020 01:49:38,19-MAY-2020,CAN,itripkg00085,itripkg00000,100000433122283
146,100002333696197,6441482116,,TRIPSKING,2A,2440.00,No,18-MAY-2020 02:55:45,19-MAY-2020,CAN,itripkg00100,itripkg00000,100000433491895
147,100002309977766,2856097621,,TRIPSKING,SL,590.00,No,18-MAY-2020 01:47:46,19-MAY-2020,CAN,itripkg00067,itripkg00000,100000433110976
148,100002308889568,8804095282,,TRIPSKING,SL,2610.00,No,18-MAY-2020 01:41:22,19-MAY-2020,CAN,itripkg00036,itripkg00000,100000433072925
149,100002327151975,2637964401,,TRIPSKING,SL,720.00,No,18-MAY-2020 02:29:43,19-MAY-2020,CAN,itripkg00052,itripkg00000,100000433364838
150,100002308889132,8130803121,,TRIPSKING,SL,2445.00,No,18-MAY-2020 01:41:23,19-MAY-2020,CAN,itripkg00036,itripkg00000,100000433072945
151,100002277025135,4723518479,,TRIPSKING,SL,1960.00,No,18-MAY-2020 01:22:40,19-MAY-2020,CAN,itripkg00022,itripkg00000,100000432959989
152,100002296975140,2308408943,,TRIPSKING,SL,3030.00,No,18-MAY-2020 01:31:15,19-MAY-2020,CAN,itripkg00034,itripkg00000,100000433010546
153,100002308522014,8530794077,,TRIPSKING,3A,5145.00,No,18-MAY-2020 01:39:54,19-MAY-2020,CAN,itripkg00036,itripkg00000,100000433063741
154,100002322943564,2409164159,,TRIPSKING,3A,505.00,No,18-MAY-2020 02:18:59,19-MAY-2020,CAN,itripkg00085,itripkg00000,100000433300906
155,100002318999582,6441092457,,TRIPSKING,SL,350.00,No,18-MAY-2020 02:21:01,19-MAY-2020,CAN,itripkg00062,itripkg00000,100000433313435
156,100002300683489,2637182426,,TRIPSKING,3A,1440.00,No,18-MAY-2020 01:11:31,19-MAY-2020,CAN,itripkg00036,itripkg00000,100000432891730
157,100002308889484,8430805148,,TRIPSKING,SL,2610.00,No,18-MAY-2020 01:41:22,19-MAY-2020,CAN,itripkg00036,itripkg00000,100000433072930
158,100002302070191,2537230914,,TRIPSKING,3A,7475.00,No,18-MAY-2020 01:15:02,19-MAY-2020,CAN,itripkg00080,itripkg00000,100000432913320
159,100002313745531,2637574269,,TRIPSKING,3A,3605.00,No,18-MAY-2020 02:16:27,19-MAY-2020,CAN,itripkg00018,itripkg00000,100000433285100
160,100002297115231,6240592307,,TRIPSKING,3A,8700.00,No,18-MAY-2020 02:07:48,19-MAY-2020,CAN,itripkg00015,itripkg00000,100000433231941
161,100002310315491,6640909030,,TRIPSKING,SL,1915.00,No,18-MAY-2020 01:49:38,19-MAY-2020,CAN,itripkg00085,itripkg00000,100000433122299
162,100002296927461,2637068141,,TRIPSKING,2A,3315.00,No,18-MAY-2020 01:31:04,19-MAY-2020,CAN,itripkg00012,itripkg00000,100000433009683
163,100002308889222,8630804008,,TRIPSKING,SL,2610.00,No,18-MAY-2020 01:41:21,19-MAY-2020,CAN,itripkg00036,itripkg00000,100000433072908
164,100002289849624,2108199991,,TRIPSKING,2A,1655.00,No,18-MAY-2020 01:10:23,19-MAY-2020,CAN,itripkg00008,itripkg00000,100000432884497
165,100002322018309,2856434266,,TRIPSKING,SL,1875.00,No,18-MAY-2020 02:17:33,19-MAY-2020,CAN,itripkg00004,itripkg00000,100000433291905
166,100002307387017,2108708180,,TRIPSKING,SL,1730.00,No,18-MAY-2020 01:32:54,19-MAY-2020,CAN,itripkg00028,itripkg00000,100000433020485
167,100002310139457,2408802596,,TRIPSKING,SL,1565.00,No,18-MAY-2020 01:48:37,19-MAY-2020,CAN,itripkg00028,itripkg00000,100000433116150
168,100002308328943,8230793764,,TRIPSKING,3A,6950.00,No,18-MAY-2020 01:39:12,19-MAY-2020,CAN,itripkg00036,itripkg00000,100000433059385
169,100002303849436,2855903308,,TRIPSKING,SL,1630.00,No,18-MAY-2020 01:17:41,19-MAY-2020,CAN,itripkg00025,itripkg00000,100000432929360
170,100002302070087,2108572551,,TRIPSKING,3A,7665.00,No,18-MAY-2020 01:15:02,19-MAY-2020,CAN,itripkg00080,itripkg00000,100000432913309
171,100002277015063,6802467135,,TRIPSKING,3A,4400.00,No,18-MAY-2020 01:22:32,19-MAY-2020,CAN,itripkg00004,itripkg00000,100000432959179
172,100002309687183,8730822852,,TRIPSKING,3A,4110.00,No,18-MAY-2020 01:46:20,19-MAY-2020,CAN,itripkg00004,itripkg00000,100000433102824
173,100002308328979,8330794069,,TRIPSKING,3A,1555.00,No,18-MAY-2020 01:39:14,19-MAY-2020,CAN,itripkg00036,itripkg00000,100000433060218
174,100002305252317,2408649937,,TRIPSKING,SL,2875.00,No,18-MAY-2020 01:24:05,19-MAY-2020,CAN,itripkg00022,itripkg00000,100000432968139
175,100002318969929,2756343082,,TRIPSKING,2A,3030.00,No,18-MAY-2020 02:20:56,19-MAY-2020,CAN,itripkg00038,itripkg00000,100000433312707
176,100002308889070,8530802930,,TRIPSKING,SL,2820.00,No,18-MAY-2020 01:41:21,19-MAY-2020,CAN,itripkg00036,itripkg00000,100000433072900
177,100002316361228,6141059651,,TRIPSKING,SL,1895.00,No,18-MAY-2020 02:10:37,19-MAY-2020,CAN,itripkg00030,itripkg00000,100000433249636
178,100002296783340,2537060717,,TRIPSKING,SL,1160.00,No,18-MAY-2020 01:30:40,19-MAY-2020,CAN,itripkg00034,itripkg00000,100000433007452
179,100002300805493,2755828796,,TRIPSKING,SL,2655.00,No,18-MAY-2020 01:11:42,19-MAY-2020,CAN,itripkg00036,itripkg00000,100000432892584
180,100002296917264,8803775355,,TRIPSKING,3A,10650.00,No,18-MAY-2020 01:55:02,19-MAY-2020,CAN,itripkg00080,itripkg00000,100000433154800
181,100002308328310,8804077296,,TRIPSKING,3A,6380.00,No,18-MAY-2020 01:39:11,19-MAY-2020,CAN,itripkg00036,itripkg00000,100000433059354
182,100002329945161,4104965045,,TRIPSKING,SL,5370.00,No,18-MAY-2020 02:29:55,19-MAY-2020,CAN,itripkg00023,itripkg00000,100000433366088
183,100002308522099,8330794763,,TRIPSKING,3A,3585.00,No,18-MAY-2020 01:39:57,19-MAY-2020,CAN,itripkg00036,itripkg00000,100000433063788
184,100002322943641,2409164791,,TRIPSKING,3A,505.00,No,18-MAY-2020 02:26:51,19-MAY-2020,CAN,itripkg00085,itripkg00000,100000433347644
185,100002306876168,2637350982,,TRIPSKING,3A,3750.00,No,18-MAY-2020 01:30:31,19-MAY-2020,CAN,itripkg00011,itripkg00000,100000433006464
186,100002333629248,2638176575,,TRIPSKING,SL,1880.00,No,18-MAY-2020 02:40:26,19-MAY-2020,CAN,itripkg00036,itripkg00000,100000433428403
187,100002310139404,2537460496,,TRIPSKING,SL,2320.00,No,18-MAY-2020 01:48:37,19-MAY-2020,CAN,itripkg00028,itripkg00000,100000433116141
188,100002307620998,2208723980,,TRIPSKING,SL,335.00,No,18-MAY-2020 01:34:03,19-MAY-2020,CAN,itripkg00028,itripkg00000,100000433027528
189,100002287304591,2208125759,,TRIPSKING,3A,555.00,No,18-MAY-2020 01:32:44,19-MAY-2020,CAN,itripkg00065,itripkg00000,100000433019191
190,100002302323582,2637240524,,TRIPSKING,SL,810.00,No,18-MAY-2020 01:15:25,19-MAY-2020,CAN,itripkg00080,itripkg00000,100000432915648
191,100002296783512,2537062288,,TRIPSKING,3A,1250.00,No,18-MAY-2020 01:30:39,19-MAY-2020,CAN,itripkg00034,itripkg00000,100000433007412
192,100002332116979,2409472121,,TRIPSKING,SL,1825.00,No,18-MAY-2020 02:33:08,19-MAY-2020,CAN,itripkg00035,itripkg00000,100000433384845
193,100002294872717,6240548174,,TRIPSKING,SL,3525.00,No,18-MAY-2020 01:52:53,19-MAY-2020,CAN,itripkg00080,itripkg00000,100000433142251
194,100002335451199,2538229286,,TRIPSKING,3A,910.00,No,18-MAY-2020 02:37:30,19-MAY-2020,CAN,itripkg00008,itripkg00000,100000433410858
195,100002322943535,2637822189,,TRIPSKING,3A,620.00,No,18-MAY-2020 02:18:59,19-MAY-2020,CAN,itripkg00085,itripkg00000,100000433300895
196,100002308889866,8630807398,,TRIPSKING,SL,2820.00,No,18-MAY-2020 01:41:23,19-MAY-2020,CAN,itripkg00036,itripkg00000,100000433072935
197,100002319049027,2537699752,,TRIPSKING,SL,2610.00,No,18-MAY-2020 02:13:08,19-MAY-2020,CAN,itripkg00022,itripkg00000,100000433265213
198,100002307834177,4104369003,,TRIPSKING,3A,2205.00,No,18-MAY-2020 01:58:21,19-MAY-2020,CAN,itripkg00004,itripkg00000,100000433175256
199,100002300683761,2308526504,,TRIPSKING,SL,2820.00,No,18-MAY-2020 01:11:30,19-MAY-2020,CAN,itripkg00036,itripkg00000,100000432891716
200,100002301232237,8803897099,,TRIPSKING,SL,625.00,No,18-MAY-2020 01:12:16,19-MAY-2020,CAN,itripkg00048,itripkg00000,100000432896169
201,100002309786219,6803257882,,TRIPSKING,2A,5840.00,No,18-MAY-2020 01:47:15,19-MAY-2020,CAN,itripkg00085,itripkg00000,100000433108271
202,100002295097173,4516303262,,TRIPSKING,SL,990.00,No,18-MAY-2020 02:05:50,19-MAY-2020,CAN,itripkg00067,itripkg00000,100000433220055
203,100002322018333,2409135730,,TRIPSKING,SL,1875.00,No,18-MAY-2020 02:19:02,19-MAY-2020,CAN,itripkg00004,itripkg00000,100000433301121
204,100002323109146,6141189283,,TRIPSKING,SL,2240.00,No,18-MAY-2020 02:21:24,19-MAY-2020,CAN,itripkg00085,itripkg00000,100000433315525
205,100002300805828,2208532140,,TRIPSKING,SL,2235.00,No,18-MAY-2020 01:11:45,19-MAY-2020,CAN,itripkg00036,itripkg00000,100000432893244
206,100002332085597,6803801883,,TRIPSKING,SL,570.00,No,18-MAY-2020 02:33:06,19-MAY-2020,CAN,itripkg00036,itripkg00000,100000433384193
207,100002285107751,6540308107,,TRIPSKING,3A,2380.00,No,18-MAY-2020 01:22:33,19-MAY-2020,CAN,itripkg00085,itripkg00000,100000432959664
208,100002301245455,2208548945,,TRIPSKING,3A,2710.00,No,18-MAY-2020 02:01:17,19-MAY-2020,CAN,itripkg00080,itripkg00000,100000433192287
209,100002329945218,2638049712,,TRIPSKING,SL,1980.00,No,18-MAY-2020 02:38:02,19-MAY-2020,CAN,itripkg00023,itripkg00000,100000433413578
210,100002325374022,2309237873,,TRIPSKING,3A,3720.00,No,18-MAY-2020 02:26:20,19-MAY-2020,CAN,itripkg00085,itripkg00000,100000433344301
211,100002308328269,8330791175,,TRIPSKING,3A,7410.00,No,18-MAY-2020 01:39:14,19-MAY-2020,CAN,itripkg00036,itripkg00000,100000433060219
212,100002288724554,8330378926,,TRIPSKING,SL,1280.00,No,18-MAY-2020 01:40:11,19-MAY-2020,CAN,itripkg00052,itripkg00000,100000433065933
213,100002327151209,6741298594,,TRIPSKING,SL,690.00,No,18-MAY-2020 02:34:17,19-MAY-2020,CAN,itripkg00052,itripkg00000,100000433391804
214,100002332291366,2109474740,,TRIPSKING,SL,1875.00,No,18-MAY-2020 02:38:19,19-MAY-2020,CAN,itripkg00035,itripkg00000,100000433415395
215,100002299536927,2855790297,,TRIPSKING,SL,400.00,No,18-MAY-2020 01:58:18,19-MAY-2020,CAN,itripkg00092,itripkg00000,100000433174816
216,100002308889662,8230806205,,TRIPSKING,SL,2820.00,No,18-MAY-2020 01:41:22,19-MAY-2020,CAN,itripkg00036,itripkg00000,100000433072916
217,100002300365116,2637168495,,TRIPSKING,3A,6795.00,No,18-MAY-2020 01:10:59,19-MAY-2020,CAN,itripkg00036,itripkg00000,100000432888163
218,100002308093990,8330789726,,TRIPSKING,3A,7410.00,No,18-MAY-2020 01:36:03,19-MAY-2020,CAN,itripkg00036,itripkg00000,100000433040229
219,100002304377454,8330704316,,TRIPSKING,3A,7565.00,No,18-MAY-2020 02:04:23,19-MAY-2020,CAN,itripkg00015,itripkg00000,100000433210934
220,100002283085271,6240265188,,TRIPSKING,3A,3995.00,No,18-MAY-2020 01:15:29,19-MAY-2020,CAN,itripkg00052,itripkg00000,100000432916224
221,100002333329739,2409511628,,TRIPSKING,3A,950.00,No,18-MAY-2020 02:42:58,19-MAY-2020,CAN,itripkg00092,itripkg00000,100000433443216
222,100002300365134,2108510764,,TRIPSKING,3A,7410.00,No,18-MAY-2020 01:10:59,19-MAY-2020,CAN,itripkg00036,itripkg00000,100000432888174
223,100002300683811,2408526590,,TRIPSKING,SL,2610.00,No,18-MAY-2020 01:11:31,19-MAY-2020,CAN,itripkg00036,itripkg00000,100000432891723
224,100002299270198,6340642687,,TRIPSKING,2A,5325.00,No,18-MAY-2020 01:41:26,19-MAY-2020,CAN,itripkg00082,itripkg00000,100000433073532
225,100002300400101,6640669756,,TRIPSKING,2A,2920.00,No,18-MAY-2020 01:11:06,19-MAY-2020,CAN,itripkg00085,itripkg00000,100000432888934
226,100002308328204,8630790751,,TRIPSKING,3A,6840.00,No,18-MAY-2020 01:39:13,19-MAY-2020,CAN,itripkg00036,itripkg00000,100000433060208
227,100002308876964,2108764854,,TRIPSKING,2A,1645.00,No,18-MAY-2020 01:41:18,19-MAY-2020,CAN,itripkg00008,itripkg00000,100000433072831
228,100002308889636,8530806043,,TRIPSKING,SL,2655.00,No,18-MAY-2020 01:41:24,19-MAY-2020,CAN,itripkg00036,itripkg00000,100000433072973
229,100002300658421,4204184027,,TRIPSKING,3A,3555.00,No,18-MAY-2020 02:12:20,19-MAY-2020,CAN,itripkg00030,itripkg00000,100000433259981
230,100002300683729,2408526379,,TRIPSKING,SL,2820.00,No,18-MAY-2020 01:11:30,19-MAY-2020,CAN,itripkg00036,itripkg00000,100000432891711
231,100002329860904,2756692071,,TRIPSKING,SL,1400.00,No,18-MAY-2020 02:34:03,19-MAY-2020,CAN,itripkg00052,itripkg00000,100000433389924
232,100002300805870,2208532748,,TRIPSKING,SL,2150.00,No,18-MAY-2020 01:11:45,19-MAY-2020,CAN,itripkg00036,itripkg00000,100000432893253
233,100002317748987,2537676184,,TRIPSKING,2A,1520.00,No,18-MAY-2020 02:32:08,19-MAY-2020,CAN,itripkg00092,itripkg00000,100000433378650
234,100002292444032,2208286190,,TRIPSKING,2A,5835.00,No,18-MAY-2020 01:17:43,19-MAY-2020,CAN,itripkg00085,itripkg00000,100000432929764
235,100002322079042,6541162679,,TRIPSKING,2A,4125.00,No,18-MAY-2020 02:19:08,19-MAY-2020,CAN,itripkg00085,itripkg00000,100000433301904
236,100002288596512,2536823114,,TRIPSKING,2A,2820.00,No,18-MAY-2020 01:57:06,19-MAY-2020,CAN,itripkg00032,itripkg00000,100000433167503
237,100002300213915,6540668346,,TRIPSKING,2A,5840.00,No,18-MAY-2020 01:09:33,19-MAY-2020,CAN,itripkg00085,itripkg00000,100000432879626
238,100002312411502,2408869728,,TRIPSKING,3A,4620.00,No,18-MAY-2020 01:59:44,19-MAY-2020,CAN,itripkg00092,itripkg00000,100000433183383
239,100002288444154,8430371871,,TRIPSKING,SL,2075.00,No,18-MAY-2020 01:39:03,19-MAY-2020,CAN,itripkg00008,itripkg00000,100000433058774
240,100002332085584,2309467407,,TRIPSKING,SL,560.00,No,18-MAY-2020 02:53:39,19-MAY-2020,CAN,itripkg00036,itripkg00000,100000433488203
241,100002308328114,8630790477,,TRIPSKING,3A,6840.00,No,18-MAY-2020 01:39:11,19-MAY-2020,CAN,itripkg00036,itripkg00000,100000433059362
242,100002300365170,2408511226,,TRIPSKING,3A,7410.00,No,18-MAY-2020 01:10:58,19-MAY-2020,CAN,itripkg00036,itripkg00000,100000432888127
243,100002300805961,2537191132,,TRIPSKING,SL,2400.00,No,18-MAY-2020 01:11:46,19-MAY-2020,CAN,itripkg00036,itripkg00000,100000432893266
244,100002333629256,8431337958,,TRIPSKING,SL,1880.00,No,18-MAY-2020 02:40:26,19-MAY-2020,CAN,itripkg00036,itripkg00000,100000433428408
245,100002300365084,2108510104,,TRIPSKING,3A,7410.00,No,18-MAY-2020 01:10:58,19-MAY-2020,CAN,itripkg00036,itripkg00000,100000432888135
246,100002318450701,6341081952,,TRIPSKING,3A,2360.00,No,18-MAY-2020 02:12:41,19-MAY-2020,CAN,itripkg00084,itripkg00000,100000433261920
247,100002295709723,2208377011,,TRIPSKING,3A,4400.00,No,18-MAY-2020 01:26:12,19-MAY-2020,CAN,itripkg00004,itripkg00000,100000432980198
248,100002288444976,2108164024,,TRIPSKING,2A,3850.00,No,18-MAY-2020 01:56:45,19-MAY-2020,CAN,itripkg00092,itripkg00000,100000433165162
249,100002308706699,8804089519,,TRIPSKING,SL,2820.00,No,18-MAY-2020 01:40:28,19-MAY-2020,CAN,itripkg00036,itripkg00000,100000433067681
250,100002300805518,2755828710,,TRIPSKING,SL,2820.00,No,18-MAY-2020 01:11:44,19-MAY-2020,CAN,itripkg00036,itripkg00000,100000432893235
251,100002305544608,2537318798,,TRIPSKING,SL,1580.00,No,18-MAY-2020 01:25:07,19-MAY-2020,CAN,itripkg00052,itripkg00000,100000432973579
252,100002317748842,6341072778,,TRIPSKING,3A,7740.00,No,18-MAY-2020 02:11:38,19-MAY-2020,CAN,itripkg00092,itripkg00000,100000433256015
253,100002300805980,2408533147,,TRIPSKING,SL,565.00,No,18-MAY-2020 01:11:44,19-MAY-2020,CAN,itripkg00036,itripkg00000,100000432893229
254,100002302229388,2855877549,,TRIPSKING,3A,1330.00,No,18-MAY-2020 01:15:17,19-MAY-2020,CAN,itripkg00036,itripkg00000,100000432914874
255,100002308328175,8730790342,,TRIPSKING,3A,7410.00,No,18-MAY-2020 01:39:13,19-MAY-2020,CAN,itripkg00036,itripkg00000,100000433059392
256,100002280550846,2307923056,,TRIPSKING,3A,3495.00,No,18-MAY-2020 01:42:18,19-MAY-2020,CAN,itripkg00080,itripkg00000,100000433078744
257,100002302323536,2108582755,,TRIPSKING,SL,2430.00,No,18-MAY-2020 01:15:24,19-MAY-2020,CAN,itripkg00080,itripkg00000,100000432915643
258,100002299536914,2208491095,,TRIPSKING,SL,370.00,No,18-MAY-2020 01:42:16,19-MAY-2020,CAN,itripkg00092,itripkg00000,100000433078872
259,100002308889189,8330803477,,TRIPSKING,SL,2655.00,No,18-MAY-2020 01:41:21,19-MAY-2020,CAN,itripkg00036,itripkg00000,100000433072894
260,100002300365188,2408511276,,TRIPSKING,3A,7410.00,No,18-MAY-2020 01:10:58,19-MAY-2020,CAN,itripkg00036,itripkg00000,100000432888139
261,100002308889456,8430805285,,TRIPSKING,SL,2820.00,No,18-MAY-2020 01:41:22,19-MAY-2020,CAN,itripkg00036,itripkg00000,100000433072917
262,100002308706745,8430801097,,TRIPSKING,SL,2820.00,No,18-MAY-2020 01:40:28,19-MAY-2020,CAN,itripkg00036,itripkg00000,100000433067696
263,100002332085619,2756766585,,TRIPSKING,SL,280.00,No,18-MAY-2020 02:33:07,19-MAY-2020,CAN,itripkg00036,itripkg00000,100000433384813
264,100002329945367,4204966131,,TRIPSKING,SL,1925.00,No,18-MAY-2020 02:29:54,19-MAY-2020,CAN,itripkg00023,itripkg00000,100000433366051
265,100002304181792,2537271790,,TRIPSKING,2A,2920.00,No,18-MAY-2020 01:18:59,19-MAY-2020,CAN,itripkg00085,itripkg00000,100000432937701
266,100002300973075,2637191413,,TRIPSKING,SL,1650.00,No,18-MAY-2020 01:11:58,19-MAY-2020,CAN,itripkg00036,itripkg00000,100000432894161
267,100002299079326,6240638342,,TRIPSKING,2A,9810.00,No,18-MAY-2020 01:40:30,19-MAY-2020,CAN,itripkg00082,itripkg00000,100000433068022
268,100002335451142,4105110474,,TRIPSKING,3A,1680.00,No,18-MAY-2020 02:42:40,19-MAY-2020,CAN,itripkg00008,itripkg00000,100000433441410
269,100002283863651,2855318674,,TRIPSKING,2A,4720.00,No,18-MAY-2020 01:16:58,19-MAY-2020,CAN,itripkg00050,itripkg00000,100000432925282
270,100002308889282,8630804258,,TRIPSKING,SL,2445.00,No,18-MAY-2020 01:41:23,19-MAY-2020,CAN,itripkg00036,itripkg00000,100000433072936
271,100002312366131,8730880424,,TRIPSKING,SL,605.00,No,18-MAY-2020 02:14:30,19-MAY-2020,CAN,itripkg00074,itripkg00000,100000433273266
272,100002300400140,6340669939,,TRIPSKING,2A,2375.00,No,18-MAY-2020 01:11:07,19-MAY-2020,CAN,itripkg00085,itripkg00000,100000432888949
273,100002310315306,6640908643,,TRIPSKING,SL,1375.00,No,18-MAY-2020 01:49:38,19-MAY-2020,CAN,itripkg00085,itripkg00000,100000433122298
274,100002308889803,8530806958,,TRIPSKING,SL,2235.00,No,18-MAY-2020 01:41:24,19-MAY-2020,CAN,itripkg00036,itripkg00000,100000433072960
275,100002296917209,8230549309,,TRIPSKING,3A,8875.00,No,18-MAY-2020 01:55:01,19-MAY-2020,CAN,itripkg00080,itripkg00000,100000433154769
276,100002288596490,6802758921,,TRIPSKING,2A,5640.00,No,18-MAY-2020 01:57:05,19-MAY-2020,CAN,itripkg00032,itripkg00000,100000433167481
277,100002300365358,2408512661,,TRIPSKING,3A,7410.00,No,18-MAY-2020 01:10:59,19-MAY-2020,CAN,itripkg00036,itripkg00000,100000432888172
278,100002300365385,2637170662,,TRIPSKING,3A,7410.00,No,18-MAY-2020 01:11:00,19-MAY-2020,CAN,itripkg00036,itripkg00000,100000432888184
279,100002284252330,2108031941,,TRIPSKING,3A,3060.00,No,18-MAY-2020 01:17:35,19-MAY-2020,CAN,itripkg00038,itripkg00000,100000432929056
280,100002332291319,2756773108,,TRIPSKING,SL,1875.00,No,18-MAY-2020 02:38:19,19-MAY-2020,CAN,itripkg00035,itripkg00000,100000433415375
281,100002305705295,2208664596,,TRIPSKING,2A,1835.00,No,18-MAY-2020 01:25:46,19-MAY-2020,CAN,itripkg00085,itripkg00000,100000432978022
282,100002308522059,8330794469,,TRIPSKING,3A,4715.00,No,18-MAY-2020 01:39:55,19-MAY-2020,CAN,itripkg00036,itripkg00000,100000433063761
283,100002296768453,2208404194,,TRIPSKING,SL,2275.00,No,18-MAY-2020 01:54:47,19-MAY-2020,CAN,itripkg00004,itripkg00000,100000433153820
284,100002300805364,2408528912,,TRIPSKING,SL,2445.00,No,18-MAY-2020 01:11:44,19-MAY-2020,CAN,itripkg00036,itripkg00000,100000432893216
285,100002302323471,2408582255,,TRIPSKING,SL,2430.00,No,18-MAY-2020 01:15:24,19-MAY-2020,CAN,itripkg00080,itripkg00000,100000432915621
286,100002300805451,2108529378,,TRIPSKING,SL,2820.00,No,18-MAY-2020 01:11:45,19-MAY-2020,CAN,itripkg00036,itripkg00000,100000432893237
287,100002299536887,2108491160,,TRIPSKING,SL,590.00,No,18-MAY-2020 01:58:17,19-MAY-2020,CAN,itripkg00092,itripkg00000,100000433174189
288,100002308889750,8230806552,,TRIPSKING,SL,2215.00,No,18-MAY-2020 01:41:23,19-MAY-2020,CAN,itripkg00036,itripkg00000,100000433072942
289,100002304345123,2855914819,,TRIPSKING,2A,6540.00,No,18-MAY-2020 01:19:29,19-MAY-2020,CAN,itripkg00085,itripkg00000,100000432940173
290,100002310680431,2756118231,,TRIPSKING,3A,555.00,No,18-MAY-2020 01:51:36,19-MAY-2020,CAN,itripkg00065,itripkg00000,100000433133918
291,100002310315511,8230839532,,TRIPSKING,SL,1915.00,No,18-MAY-2020 01:49:39,19-MAY-2020,CAN,itripkg00085,itripkg00000,100000433122314
292,100002308706972,8130802399,,TRIPSKING,SL,2820.00,No,18-MAY-2020 01:40:25,19-MAY-2020,CAN,itripkg00036,itripkg00000,100000433067632
293,100002287304614,2208125538,,TRIPSKING,3A,505.00,No,18-MAY-2020 01:32:41,19-MAY-2020,CAN,itripkg00065,itripkg00000,100000433019124
294,100002300400182,2208512265,,TRIPSKING,3A,3360.00,No,18-MAY-2020 01:11:07,19-MAY-2020,CAN,itripkg00085,itripkg00000,100000432888970
295,100002299536827,6803017725,,TRIPSKING,SL,2000.00,No,18-MAY-2020 02:10:37,19-MAY-2020,CAN,itripkg00092,itripkg00000,100000433249446
296,100002279690582,8803318012,,TRIPSKING,3A,1670.00,No,18-MAY-2020 01:37:14,19-MAY-2020,CAN,itripkg00025,itripkg00000,100000433048014
297,100002298315675,6740619134,,TRIPSKING,3A,8400.00,No,18-MAY-2020 01:36:36,19-MAY-2020,CAN,itripkg00080,itripkg00000,100000433043826
298,100002308706890,8130801681,,TRIPSKING,SL,2655.00,No,18-MAY-2020 01:40:27,19-MAY-2020,CAN,itripkg00036,itripkg00000,100000433067669
